%YAML 1.1
%TAG !u! tag:unity3d.com,2011:
--- !u!114 &11400000
MonoBehaviour:
  m_ObjectHideFlags: 0
  m_PrefabParentObject: {fileID: 0}
  m_PrefabInternal: {fileID: 0}
  m_GameObject: {fileID: 0}
  m_Enabled: 1
  m_EditorHideFlags: 0
  m_Script: {fileID: 11500000, guid: 1d851119d900ef245b7ca1aebd878dad, type: 3}
  m_Name: SongNameInfo
  m_EditorClassIdentifier: 
  nouns:
  - fist
  - sun
  - love
  - train
  - nothing
  - tree
  - flame
  - cash
  - disaster
  - food
  - tree
  - telephone
  - baby
  - news
  - war
  - peace
  - power
  - youth
  - stereo
  - home
  - parents
  - cinema
  - family
  - satellite
  - doctor
  - law
  - doctor
  - space
  - football
  - awakening
  - party
  - weapon
  verbs:
  - rage
  - swim
  - think
  - snuggle
  - write
  - hope
  - smile
  - remember
  - give
  - burn
  - stop
  - want
  - sell
  - dispose
  - recycle
  - warn
  - sing
  - embrace
  - dream
  - sleep
  - light
  - ponder
  - tire
  adjectives:
  - flying
  - vigorous
  - melted
  - sun-kissed
  - icy
  - canned
  - jolly
  - phoney
  - toxic
  - happy
  - only
  - greatest
  - rapidly
  - thrilling
  - bright
  - crazed
  - first
  - smoking
  - awesome
  - fashionable
  - experimental
  - cloudy
  - infamous
  - free
  - mournful
  - indignant
  songNameTemplates:
  - <noun> of the <adjective> <noun>
  - <noun> is my <adjective> <noun>
  - <adjective> <noun> helps me <verb>
  - when I <verb> you are <adjective>
  - wherever we <verb> the <noun>, <verb>
  - you <verb> at <noun>
  - <adjective> <noun> can't <verb>
  - <noun> of <adjective> <noun>
  - we <verb> for <noun>
  - <verb> <noun>, my <noun>
  - <adjective>, the <adjective> <noun>
  - <noun> or <adjective> <noun>?
  - while <noun> can <verb>
  - if <adjective> <noun> then <verb>
  - <verb> a <adjective> <noun>
  - a <noun> that will <verb>
  - <adjective> <verb> (a <noun>)
  - <noun> is <adjective> (but <noun> will <verb>)
  - <adjective> <verb> to <adjective> <noun>
  - <noun> has <verb> the <noun>
  bandNames:
  - The Insects
  - Poetsmith
  - Teddy Freddy
  - Ink And Feather
  - Hoisted
  - Turkey Crew
  - Ghosts of Midnight
  - M.A.D.
  - Electro Dave
  - Cosmic Conspiracy
  - July Freak
  - Revolutioneers
